{"photos":{"page":1,"pages":14694,"perpage":20,"total":"293871","photo":[{"id":"23644597384","owner":"47748817@N02","secret":"cdb57efb22","server":"1490","farm":2,"title":"Cordoba","ispublic":1,"isfriend":0,"isfamily":0,"url_m":"https:\/\/live.staticflickr.com\/1490\/23644597384_cdb57efb22.jpg","height_m":324,"width_m":500},{"id":"50793837353","owner":"136487506@N03","secret":"91e6703963","server":"65535","farm":66,"title":"Cordoba","ispublic":1,"isfriend":0,"isfamily":0,"url_m":"https:\/\/live.staticflickr.com\/65535\/50793837353_91e6703963.jpg","height_m":500,"width_m":356},{"id":"8111843717","owner":"47748817@N02","secret":"99523b2ce8","server":"8328","farm":9,"title":"cordoba","ispublic":1,"isfriend":0,"isfamily":0,"url_m":"https:\/\/live.staticflickr.com\/8328\/8111843717_99523b2ce8.jpg","height_m":500,"width_m":319},{"id":"8289924254","owner":"39870654@N04","secret":"c4f8800e98","server":"8499","farm":9,"title":"cordoba","ispublic":1,"isfriend":0,"isfamily":0,"url_m":"https:\/\/live.staticflickr.com\/8499\/8289924254_c4f8800e98.jpg","height_m":500,"width_m":446},{"id":"38224774561","owner":"108336647@N08","secret":"468a56aeb2","server":"4559","farm":5,"title":"Cordoba","ispublic":1,"isfriend":0,"isfamily":0,"url_m":"https:\/\/live.staticflickr.com\/4559\/38224774561_468a56aeb2.jpg","height_m":243,"width_m":500},{"id":"50759174641","owner":"189324558@N07","secret":"2168a8bfbb","server":"65535","farm":66,"title":"Cordoba .","ispublic":1,"isfriend":0,"isfamily":0,"url_m":"https:\/\/live.staticflickr.com\/65535\/50759174641_2168a8bfbb.jpg","height_m":333,"width_m":500},{"id":"8141001518","owner":"47748817@N02","secret":"9859273871","server":"8330","farm":9,"title":"cordoba","ispublic":1,"isfriend":0,"isfamily":0,"url_m":"https:\/\/live.staticflickr.com\/8330\/8141001518_9859273871.jpg","height_m":427,"width_m":500},{"id":"8108792344","owner":"47748817@N02","secret":"98c0bb7232","server":"8192","farm":9,"title":"cordoba","ispublic":1,"isfriend":0,"isfamily":0,"url_m":"https:\/\/live.staticflickr.com\/8192\/8108792344_98c0bb7232.jpg","height_m":388,"width_m":500},{"id":"8150021932","owner":"47748817@N02","secret":"7f69efaa42","server":"8056","farm":9,"title":"cordoba","ispublic":1,"isfriend":0,"isfamily":0,"url_m":"https:\/\/live.staticflickr.com\/8056\/8150021932_7f69efaa42.jpg","height_m":293,"width_m":500},{"id":"8299617580","owner":"39870654@N04","secret":"a0784846a4","server":"8358","farm":9,"title":"Cordoba","ispublic":1,"isfriend":0,"isfamily":0,"url_m":"https:\/\/live.staticflickr.com\/8358\/8299617580_a0784846a4.jpg","height_m":287,"width_m":500},{"id":"8293286890","owner":"39870654@N04","secret":"20d73a2103","server":"8213","farm":9,"title":"Cordoba","ispublic":1,"isfriend":0,"isfamily":0,"url_m":"https:\/\/live.staticflickr.com\/8213\/8293286890_20d73a2103.jpg","height_m":333,"width_m":500},{"id":"8123510972","owner":"47748817@N02","secret":"21cc890ff2","server":"8474","farm":9,"title":"cordoba","ispublic":1,"isfriend":0,"isfamily":0,"url_m":"https:\/\/live.staticflickr.com\/8474\/8123510972_21cc890ff2.jpg","height_m":276,"width_m":500},{"id":"44383079154","owner":"28470120@N05","secret":"1af75f3477","server":"1932","farm":2,"title":"Cordoba.","ispublic":1,"isfriend":0,"isfamily":0,"url_m":"https:\/\/live.staticflickr.com\/1932\/44383079154_1af75f3477.jpg","height_m":331,"width_m":500},{"id":"32672364026","owner":"16428223@N08","secret":"7f261081c6","server":"627","farm":1,"title":"Cordoba","ispublic":1,"isfriend":0,"isfamily":0,"url_m":"https:\/\/live.staticflickr.com\/627\/32672364026_7f261081c6.jpg","height_m":375,"width_m":500},{"id":"32672360706","owner":"16428223@N08","secret":"b96b7d0143","server":"702","farm":1,"title":"Cordoba","ispublic":1,"isfriend":0,"isfamily":0,"url_m":"https:\/\/live.staticflickr.com\/702\/32672360706_b96b7d0143.jpg","height_m":375,"width_m":500},{"id":"32333421170","owner":"16428223@N08","secret":"49dc16e0d7","server":"727","farm":1,"title":"Cordoba","ispublic":1,"isfriend":0,"isfamily":0,"url_m":"https:\/\/live.staticflickr.com\/727\/32333421170_49dc16e0d7.jpg","height_m":500,"width_m":375},{"id":"32672381896","owner":"16428223@N08","secret":"2b6e4c4659","server":"658","farm":1,"title":"Cordoba","ispublic":1,"isfriend":0,"isfamily":0,"url_m":"https:\/\/live.staticflickr.com\/658\/32672381896_2b6e4c4659.jpg","height_m":375,"width_m":500},{"id":"31869864964","owner":"16428223@N08","secret":"305eb03f35","server":"478","farm":1,"title":"Cordoba","ispublic":1,"isfriend":0,"isfamily":0,"url_m":"https:\/\/live.staticflickr.com\/478\/31869864964_305eb03f35.jpg","height_m":500,"width_m":375},{"id":"8127097917","owner":"47748817@N02","secret":"42ce4379c2","server":"8466","farm":9,"title":"cordoba","ispublic":1,"isfriend":0,"isfamily":0,"url_m":"https:\/\/live.staticflickr.com\/8466\/8127097917_42ce4379c2.jpg","height_m":500,"width_m":452},{"id":"8155760860","owner":"47748817@N02","secret":"bf12136971","server":"8481","farm":9,"title":"cordoba","ispublic":1,"isfriend":0,"isfamily":0,"url_m":"https:\/\/live.staticflickr.com\/8481\/8155760860_bf12136971.jpg","height_m":434,"width_m":500}]},"stat":"ok"}